{
  "itemType": "Custom Fields",
  "collectedAt": "2025-09-24T11:24:25.229228Z",
  "items": {
    "customfield_10581": {
      "field": {},
      "contexts": {
        "maxResults": 20,
        "startAt": 0,
        "total": 1,
        "isLast": true,
        "values": [
          {
            "id": 11055,
            "name": "Default Configuration Scheme for kimberlyi",
            "description": "Default configuration scheme generated by Jira",
            "associatedIssueTypes": [],
            "associatedProjects": [],
            "isAllProjects": true,
            "isAllIssueTypes": true
          }
        ]
      },
      "optionsByContext": {
        "11055": {}
      },
      "screens": {
        "self": "https://openvpn-test.atlassian.net/rest/api/3/screens?startAt=0&maxResults=100",
        "nextPage": "https://openvpn-test.atlassian.net/rest/api/3/screens?startAt=100&maxResults=100",
        "maxResults": 100,
        "startAt": 0,
        "total": 661,
        "isLast": false,
        "values": [
          {
            "id": 1,
            "name": "Default Screen",
            "description": "Allows to update all system fields."
          },
          {
            "id": 2,
            "name": "Workflow Screen",
            "description": "This screen is used in the workflow and enables you to assign issues"
          },
          {
            "id": 3,
            "name": "Resolve Issue Screen",
            "description": "Allows to set resolution, change fix versions and assign an issue."
          },
          {
            "id": 10006,
            "name": "TEST123: Kanban Default Issue Screen",
            "description": ""
          },
          {
            "id": 10007,
            "name": "TEST123: Kanban Bug Screen",
            "description": ""
          },
          {
            "id": 10012,
            "name": "PM: Simple Issue Tracking Resolve Issue Screen",
            "description": ""
          },
          {
            "id": 10013,
            "name": "TASK: Task Management Create Issue Screen",
            "description": ""
          },
          {
            "id": 10014,
            "name": "TASK: Task Management Edit/View Issue Screen",
            "description": ""
          },
          {
            "id": 10015,
            "name": "Customer questions screen",
            "description": ""
          },
          {
            "id": 10016,
            "name": "New hire accounts creation",
            "description": "Provision accounts for new user"
          },
          {
            "id": 10017,
            "name": "Oleksandr Lytvyn test screen",
            "description": "test screen"
          },
          {
            "id": 10018,
            "name": "Oleksandr Lytvyn Resolve Issue Screen",
            "description": "Copy of Default \"Resolve Issue Screen\" (Allows to set resolution, change fix versions and assign an issue)"
          },
          {
            "id": 10019,
            "name": "Task-based Screen",
            "description": ""
          },
          {
            "id": 10020,
            "name": "TM: Kanban Default Issue Screen",
            "description": ""
          },
          {
            "id": 10021,
            "name": "TM: Kanban Bug Screen",
            "description": ""
          },
          {
            "id": 10022,
            "name": "RP: Kanban Default Issue Screen",
            "description": ""
          },
          {
            "id": 10023,
            "name": "RP: Kanban Bug Screen",
            "description": ""
          },
          {
            "id": 10024,
            "name": "YC: Scrum Default Issue Screen",
            "description": ""
          },
          {
            "id": 10025,
            "name": "YC: Scrum Bug Screen",
            "description": ""
          },
          {
            "id": 10026,
            "name": "ITSAMPLE: Jira Service Management Screen",
            "description": "This Jira Service Management Screen was generated automatically"
          },
          {
            "id": 10027,
            "name": "ITSAMPLE: Jira Service Management: Change Create Issue Screen",
            "description": ""
          },
          {
            "id": 10028,
            "name": "ITSAMPLE: Jira Service Management: Change View/Edit Screen",
            "description": ""
          },
          {
            "id": 10029,
            "name": "ITSAMPLE: Jira Service Management: Incident Create Issue Screen",
            "description": ""
          },
          {
            "id": 10030,
            "name": "ITSAMPLE: Jira Service Management: Incident View/Edit Screen",
            "description": ""
          },
          {
            "id": 10031,
            "name": "ITSAMPLE: Jira Service Management: Problem Create Issue Screen",
            "description": ""
          },
          {
            "id": 10032,
            "name": "ITSAMPLE: Jira Service Management: Problem View/Edit Screen",
            "description": ""
          },
          {
            "id": 10033,
            "name": "ITSAMPLE: Jira Service Management: Request Fulfilment Create Issue Screen",
            "description": ""
          },
          {
            "id": 10034,
            "name": "ITSAMPLE: Jira Service Management: Request Fulfilment View/Edit Screen",
            "description": ""
          },
          {
            "id": 10035,
            "name": "HELP: Jira Service Management Screen",
            "description": "This Jira Service Management Screen was generated automatically"
          },
          {
            "id": 10036,
            "name": "HELP: Jira Service Management: Change Create Issue Screen",
            "description": ""
          },
          {
            "id": 10037,
            "name": "HELP: Jira Service Management: Change View/Edit Screen",
            "description": ""
          },
          {
            "id": 10038,
            "name": "HELP: Jira Service Management: Incident Create Issue Screen",
            "description": ""
          },
          {
            "id": 10039,
            "name": "HELP: Jira Service Management: Incident View/Edit Screen",
            "description": ""
          },
          {
            "id": 10040,
            "name": "HELP: Jira Service Management: Problem Create Issue Screen",
            "description": ""
          },
          {
            "id": 10041,
            "name": "HELP: Jira Service Management: Problem View/Edit Screen",
            "description": ""
          },
          {
            "id": 10042,
            "name": "HELP: Jira Service Management: Request Fulfilment Create Issue Screen",
            "description": ""
          },
          {
            "id": 10043,
            "name": "HELP: Jira Service Management: Request Fulfilment View/Edit Screen",
            "description": ""
          },
          {
            "id": 10044,
            "name": "JIRA Service Desk Resolve Issue Screen",
            "description": "Allows to set resolution and linked issues"
          },
          {
            "id": 10045,
            "name": "Workflow Screen - 2",
            "description": "This screen is used in the workflow and enables you to assign issues"
          },
          {
            "id": 10046,
            "name": "JIRA Service Desk Pending Reason screen",
            "description": "Screen to specify the pending reason when transitioning to the Pending status"
          },
          {
            "id": 10047,
            "name": "JIRA Service Desk Resolve Issue Screen - 2",
            "description": "Allows to set resolution and linked issues"
          },
          {
            "id": 10048,
            "name": "JIRA Service Desk Pending Reason screen - 2",
            "description": "Screen to specify the pending reason when transitioning to the Pending status"
          },
          {
            "id": 10049,
            "name": "Workflow Screen - 3",
            "description": "This screen is used in the workflow and enables you to assign issues"
          },
          {
            "id": 10050,
            "name": "Workflow Screen - 4",
            "description": "This screen is used in the workflow and enables you to assign issues"
          },
          {
            "id": 10051,
            "name": "JIRA Service Desk Pending Reason screen - 3",
            "description": "Screen to specify the pending reason when transitioning to the Pending status"
          },
          {
            "id": 10052,
            "name": "JIRA Service Desk Resolve Issue Screen - 3",
            "description": "Allows to set resolution and linked issues"
          },
          {
            "id": 10053,
            "name": "Workflow Screen - 5",
            "description": "This screen is used in the workflow and enables you to assign issues"
          },
          {
            "id": 10054,
            "name": "JIRA Service Desk Pending Reason screen - 4",
            "description": "Screen to specify the pending reason when transitioning to the Pending status"
          },
          {
            "id": 10055,
            "name": "JIRA Service Desk Resolve Issue Screen - 4",
            "description": "Allows to set resolution and linked issues"
          },
          {
            "id": 10056,
            "name": "Workflow Screen - 6",
            "description": "This screen is used in the workflow and enables you to assign issues"
          },
          {
            "id": 10057,
            "name": "JIRA Service Desk Pending Reason screen - 5",
            "description": "Screen to specify the pending reason when transitioning to the Pending status"
          },
          {
            "id": 10058,
            "name": "JIRA Service Desk Resolve Issue Screen - 5",
            "description": "Allows to set resolution and linked issues"
          },
          {
            "id": 10059,
            "name": "Workflow Screen - 7",
            "description": "This screen is used in the workflow and enables you to assign issues"
          },
          {
            "id": 10060,
            "name": "JIRA Service Desk Pending Reason screen - 6",
            "description": "Screen to specify the pending reason when transitioning to the Pending status"
          },
          {
            "id": 10061,
            "name": "JIRA Service Desk Resolve Issue Screen - 6",
            "description": "Allows to set resolution and linked issues"
          },
          {
            "id": 10062,
            "name": "JIRA Service Desk Resolve Issue Screen - 7",
            "description": "Allows to set resolution and linked issues"
          },
          {
            "id": 10063,
            "name": "Workflow Screen - 8",
            "description": "This screen is used in the workflow and enables you to assign issues"
          },
          {
            "id": 10064,
            "name": "JIRA Service Desk Pending Reason screen - 7",
            "description": "Screen to specify the pending reason when transitioning to the Pending status"
          },
          {
            "id": 10065,
            "name": "JIRA Service Desk Resolve Issue Screen - 8",
            "description": "Allows to set resolution and linked issues"
          },
          {
            "id": 10066,
            "name": "JIRA Service Desk Pending Reason screen - 8",
            "description": "Screen to specify the pending reason when transitioning to the Pending status"
          },
          {
            "id": 10067,
            "name": "Workflow Screen - 9",
            "description": "This screen is used in the workflow and enables you to assign issues"
          },
          {
            "id": 10068,
            "name": "Workflow Screen - 10",
            "description": "This screen is used in the workflow and enables you to assign issues"
          },
          {
            "id": 10069,
            "name": "JIRA Service Desk Pending Reason screen - 9",
            "description": "Screen to specify the pending reason when transitioning to the Pending status"
          },
          {
            "id": 10070,
            "name": "JIRA Service Desk Resolve Issue Screen - 9",
            "description": "Allows to set resolution and linked issues"
          },
          {
            "id": 10071,
            "name": "Workflow Screen - 11",
            "description": "This screen is used in the workflow and enables you to assign issues"
          },
          {
            "id": 10072,
            "name": "JIRA Service Desk Pending Reason screen - 10",
            "description": "Screen to specify the pending reason when transitioning to the Pending status"
          },
          {
            "id": 10073,
            "name": "JIRA Service Desk Resolve Issue Screen - 10",
            "description": "Allows to set resolution and linked issues"
          },
          {
            "id": 10074,
            "name": "Workflow Screen - 12",
            "description": "This screen is used in the workflow and enables you to assign issues"
          },
          {
            "id": 10075,
            "name": "JIRA Service Desk Pending Reason screen - 11",
            "description": "Screen to specify the pending reason when transitioning to the Pending status"
          },
          {
            "id": 10076,
            "name": "JIRA Service Desk Resolve Issue Screen - 11",
            "description": "Allows to set resolution and linked issues"
          },
          {
            "id": 10077,
            "name": "Workflow Screen - 13",
            "description": "This screen is used in the workflow and enables you to assign issues"
          },
          {
            "id": 10078,
            "name": "JIRA Service Desk Pending Reason screen - 12",
            "description": "Screen to specify the pending reason when transitioning to the Pending status"
          },
          {
            "id": 10079,
            "name": "JIRA Service Desk Resolve Issue Screen - 12",
            "description": "Allows to set resolution and linked issues"
          },
          {
            "id": 10080,
            "name": "HR: Jira Service Management Screen",
            "description": "This Jira Service Management Screen was generated automatically"
          },
          {
            "id": 10081,
            "name": "HR: Jira Service Management: Employee Onboarding Issue Screen",
            "description": "This Jira Service Management Screen was generated automatically"
          },
          {
            "id": 10082,
            "name": "HR: Jira Service Management: Employee Offboarding Issue Screen",
            "description": "This Jira Service Management Screen was generated automatically"
          },
          {
            "id": 10083,
            "name": "HR: Jira Service Management: Change Request Issue Screen",
            "description": "This Jira Service Management Screen was generated automatically"
          },
          {
            "id": 10084,
            "name": "HR: Jira Service Management: HR Questions Issue Screen",
            "description": "This Jira Service Management Screen was generated automatically"
          },
          {
            "id": 10085,
            "name": "Jira Service Desk Resolve Issue Screen",
            "description": "Allows to set resolution"
          },
          {
            "id": 10086,
            "name": "Jira Service Desk Resolve Issue Screen - 2",
            "description": "Allows to set resolution"
          },
          {
            "id": 10087,
            "name": "Workflow Screen - 14",
            "description": "This screen is used in the workflow and enables you to assign issues"
          },
          {
            "id": 10088,
            "name": "JIRA Service Desk Pending Reason screen - 13",
            "description": "Screen to specify the pending reason when transitioning to the Pending status"
          },
          {
            "id": 10089,
            "name": "JIRA Service Desk Resolve Issue Screen - 13",
            "description": "Allows to set resolution and linked issues"
          },
          {
            "id": 10090,
            "name": "POC: Jira Service Management Screen",
            "description": "This Jira Service Management Screen was generated automatically"
          },
          {
            "id": 10091,
            "name": "POC: Jira Service Management: Change Create Issue Screen",
            "description": ""
          },
          {
            "id": 10092,
            "name": "POC: Jira Service Management: Change View/Edit Screen",
            "description": ""
          },
          {
            "id": 10093,
            "name": "POC: Jira Service Management: Incident Create Issue Screen",
            "description": ""
          },
          {
            "id": 10094,
            "name": "POC: Jira Service Management: Incident View/Edit Screen",
            "description": ""
          },
          {
            "id": 10095,
            "name": "POC: Jira Service Management: Problem Create Issue Screen",
            "description": ""
          },
          {
            "id": 10096,
            "name": "POC: Jira Service Management: Problem View/Edit Screen",
            "description": ""
          },
          {
            "id": 10097,
            "name": "POC: Jira Service Management: Request Fulfilment Create Issue Screen",
            "description": ""
          },
          {
            "id": 10098,
            "name": "POC: Jira Service Management: Request Fulfilment View/Edit Screen",
            "description": ""
          },
          {
            "id": 10099,
            "name": "JIRA Service Desk Resolve Issue Screen - 14",
            "description": "Allows to set resolution and linked issues"
          },
          {
            "id": 10100,
            "name": "Workflow Screen - 15",
            "description": "This screen is used in the workflow and enables you to assign issues"
          },
          {
            "id": 10101,
            "name": "JIRA Service Desk Pending Reason screen - 14",
            "description": "Screen to specify the pending reason when transitioning to the Pending status"
          },
          {
            "id": 10102,
            "name": "JIRA Service Desk Resolve Issue Screen - 15",
            "description": "Allows to set resolution and linked issues"
          },
          {
            "id": 10103,
            "name": "JIRA Service Desk Pending Reason screen - 15",
            "description": "Screen to specify the pending reason when transitioning to the Pending status"
          },
          {
            "id": 10104,
            "name": "Workflow Screen - 16",
            "description": "This screen is used in the workflow and enables you to assign issues"
          },
          {
            "id": 10105,
            "name": "Workflow Screen - 17",
            "description": "This screen is used in the workflow and enables you to assign issues"
          },
          {
            "id": 10106,
            "name": "JIRA Service Desk Pending Reason screen - 16",
            "description": "Screen to specify the pending reason when transitioning to the Pending status"
          }
        ]
      }
    }
  }
}